{
  "interpreted": {
    "JavaScript": {
      "content": "<p>something about JavaScript..."
    },
    "Python": {
      "content": "<p>Information about Python..."
    }
  },
  "compiled": {
    "C": {
      "content": "<p>C documentation goes here..."
    },
    "C++": {
      "content": "<p>Some info about C++..."
    },
    "Java": {
      "content": "<p>Java is fun"
    }
     }
}
